<svg xmlns="http://www.w3.org/2000/svg" width="52.5" height="52.5" viewBox="0 0 52.5 52.5">
  <g id="Bronze" transform="translate(-170 -100)">
    <g id="coin" transform="translate(170 100)">
      <path id="Path_5775" data-name="Path 5775" d="M26.25,0A26.25,26.25,0,1,0,52.5,26.25,26.34,26.34,0,0,0,26.25,0Z" fill="#e9975d"/>
      <path id="Path_5776" data-name="Path 5776" d="M282.25,26.25A26.34,26.34,0,0,1,256,52.5V0A26.34,26.34,0,0,1,282.25,26.25Z" transform="translate(-229.75)" fill="#e78852"/>
      <g id="Group_448" data-name="Group 448" transform="translate(6.152 6.152)">
        <path id="Path_5777" data-name="Path 5777" d="M80.1,60a20.1,20.1,0,1,0,20.1,20.1A20.21,20.21,0,0,0,80.1,60Z" transform="translate(-60 -60)" fill="#e16d3e"/>
      </g>
      <path id="Path_5778" data-name="Path 5778" d="M276.1,80.1A20.21,20.21,0,0,1,256,100.2V60A20.21,20.21,0,0,1,276.1,80.1Z" transform="translate(-229.75 -53.848)" fill="#dd5e33"/>
      <g id="Group_449" data-name="Group 449" transform="translate(15.483 15.483)">
        <path id="Path_5779" data-name="Path 5779" d="M167.919,157.152a10.021,10.021,0,0,0-1.753.215,10.04,10.04,0,0,0,.215-1.753,4.614,4.614,0,0,0-9.229,0,10.039,10.039,0,0,0,.215,1.753,10.022,10.022,0,0,0-1.753-.215,4.614,4.614,0,0,0,0,9.229,10.039,10.039,0,0,0,1.753-.215,10.037,10.037,0,0,0-.215,1.753,4.614,4.614,0,0,0,9.229,0,10.037,10.037,0,0,0-.215-1.753,10.04,10.04,0,0,0,1.753.215,4.614,4.614,0,0,0,0-9.229Z" transform="translate(-151 -151)" fill="#e9975d"/>
      </g>
      <path id="Path_5780" data-name="Path 5780" d="M266.767,161.767a4.608,4.608,0,0,1-4.614,4.614,10.038,10.038,0,0,1-1.753-.215,10.037,10.037,0,0,1,.215,1.753A4.608,4.608,0,0,1,256,172.533V151a4.608,4.608,0,0,1,4.614,4.614,10.039,10.039,0,0,1-.215,1.753,10.021,10.021,0,0,1,1.753-.215A4.608,4.608,0,0,1,266.767,161.767Z" transform="translate(-229.75 -135.517)" fill="#e47a48"/>
    </g>
  </g>
</svg>
