<svg xmlns="http://www.w3.org/2000/svg" width="35" height="35" viewBox="0 0 35 35">
  <g id="mail" transform="translate(-30 -417)">
    <g id="Group_705" data-name="Group 705" transform="translate(0 105)">
      <circle id="Ellipse_43" data-name="Ellipse 43" cx="17.5" cy="17.5" r="17.5" transform="translate(30 312)" fill="#f6f6f6"/>
    </g>
    <g id="Group_708" data-name="Group 708" transform="translate(39 428)">
      <path id="Path_9432" data-name="Path 9432" d="M1.3,0H15.649A1.343,1.343,0,0,1,17,1.3V10.9a1.343,1.343,0,0,1-1.351,1.3H1.3A1.333,1.333,0,0,1,0,10.9V1.3A1.333,1.333,0,0,1,1.3,0ZM.932,1.3,8.058,7.126a.77.77,0,0,0,.885,0L16.068,1.3a.411.411,0,0,0-.419-.373H1.3A.4.4,0,0,0,.932,1.3ZM16.068,2.515,9.548,7.825a1.621,1.621,0,0,1-2.1,0L.932,2.515V10.9a.4.4,0,0,0,.373.373H15.649a.411.411,0,0,0,.419-.373Z" fill="#2b6ed2" stroke="#2b6ed2" stroke-width="0.2"/>
    </g>
  </g>
</svg>
