<svg xmlns="http://www.w3.org/2000/svg" width="35" height="35" viewBox="0 0 35 35">
  <g id="Mobile" transform="translate(-30 -312)">
    <circle id="Ellipse_43" data-name="Ellipse 43" cx="17.5" cy="17.5" r="17.5" transform="translate(30 312)" fill="#f6f6f6"/>
    <g id="Group_702" data-name="Group 702" transform="translate(8.69 297.87)">
      <path id="Path_9429" data-name="Path 9429" d="M35.62,21.13h6.938a2.314,2.314,0,0,1,2.31,2.307V38.823a2.314,2.314,0,0,1-2.31,2.307H35.62a2.316,2.316,0,0,1-2.31-2.307V23.437a2.314,2.314,0,0,1,2.31-2.307Zm3.467,16.36a.939.939,0,1,1-.939.939A.937.937,0,0,1,39.088,37.49Zm4.624-.679H34.467v2.012a1.16,1.16,0,0,0,1.153,1.153h6.938a1.16,1.16,0,0,0,1.153-1.153Zm-9.245-1.157h9.245V25.931H34.467Zm8.091-13.37H35.62a1.158,1.158,0,0,0-1.153,1.153v1.34h9.245v-1.34A1.158,1.158,0,0,0,42.558,22.283Zm-3.7,1.8a.578.578,0,0,1,0-1.157h.461a.578.578,0,0,1,0,1.157Z" fill="#2b6ed2"/>
    </g>
  </g>
</svg>
