<svg xmlns="http://www.w3.org/2000/svg" width="89" height="89" viewBox="0 0 89 89">
  <g id="New_Launches" data-name="New Launches" transform="translate(-231 -640)">
    <circle id="Ellipse_49" data-name="Ellipse 49" cx="44.5" cy="44.5" r="44.5" transform="translate(231 640)" fill="#f6f6f6"/>
    <g id="Group_490" data-name="Group 490" transform="translate(239.3 649)">
      <path id="Path_9058" data-name="Path 9058" d="M10.013,62.843H61.558a1.177,1.177,0,0,0,1.182-1.182V57.525a1.177,1.177,0,0,0-1.182-1.182H59.786V29.487a4.12,4.12,0,0,0-4.137-4.137H47.835a1.182,1.182,0,0,0,0,2.364h7.814a1.7,1.7,0,0,1,1.707,1.707V56.277H53.351a7.729,7.729,0,0,0-7.617-6.829,1.182,1.182,0,1,0,0,2.364,5.235,5.235,0,0,1,5.187,4.4H44.814a8.714,8.714,0,0,0-7.354-7.748V38.023a1.182,1.182,0,1,0-2.364,0v10.44a8.732,8.732,0,0,0-7.683,7.814H21.242a5.235,5.235,0,0,1,5.187-4.4,1.182,1.182,0,0,0,0-2.364,7.675,7.675,0,0,0-7.617,6.829H14.347V29.487a1.7,1.7,0,0,1,1.707-1.707h8.864a1.182,1.182,0,1,0,0-2.364H16.054a4.12,4.12,0,0,0-4.137,4.137V56.277H9.882A1.177,1.177,0,0,0,8.7,57.459V61.6A1.4,1.4,0,0,0,10.013,62.843ZM36.869,50.827a6.344,6.344,0,0,1,5.581,5.45H29.909a6.309,6.309,0,0,1,5.91-5.45m-24.558,7.88H60.508V60.48H11.327V58.707ZM36.41,20.1a3.874,3.874,0,0,0,0,7.748,3.924,3.924,0,0,0,3.874-3.874A3.881,3.881,0,0,0,36.41,20.1Zm0,5.384a1.51,1.51,0,1,1,1.51-1.51A1.527,1.527,0,0,1,36.41,25.481Zm3.874,21.866V42.554a1.123,1.123,0,0,1-1.116-1.182,1.177,1.177,0,0,1,1.182-1.182h4.662V38.548a2.368,2.368,0,0,0-.394-1.313l-2.167-3.414a4.8,4.8,0,0,1-.722-2.5V20.031a4.348,4.348,0,0,0-1.116-2.955l-4.334-4.99-4.268,4.99a4.348,4.348,0,0,0-1.116,2.955V31.26a4.385,4.385,0,0,1-.854,2.692L27.677,37.3a2.659,2.659,0,0,0-.46,1.379v1.51h4.728a1.182,1.182,0,1,1,0,2.364h-.131v4.793a1.182,1.182,0,0,1-2.364,0V42.554H26.1a1.177,1.177,0,0,1-1.182-1.182V38.614a5.065,5.065,0,0,1,.854-2.758l2.364-3.349a2.368,2.368,0,0,0,.394-1.313V19.966a7.245,7.245,0,0,1,1.642-4.531l5.187-6.041A1.192,1.192,0,0,1,36.278,9h0a1.3,1.3,0,0,1,.919.394l5.253,6.041a6.824,6.824,0,0,1,1.707,4.531v11.36a2.716,2.716,0,0,0,.328,1.248l2.167,3.414a4.671,4.671,0,0,1,.722,2.627v2.823a1.177,1.177,0,0,1-1.182,1.182h-3.48v4.793a1.177,1.177,0,0,1-1.182,1.182A1.292,1.292,0,0,1,40.284,47.347Z" fill="#ed1c24"/>
    </g>
  </g>
</svg>
