<svg xmlns="http://www.w3.org/2000/svg" width="57.651" height="57.651" viewBox="0 0 57.651 57.651">
  <g id="Training" transform="translate(-273 -435)">
    <path id="Path_9514" data-name="Path 9514" d="M28.825,0A28.825,28.825,0,1,1,0,28.825,28.825,28.825,0,0,1,28.825,0Z" transform="translate(273 435)" fill="#f6f6f6"/>
    <g id="class" transform="translate(286 448)">
      <g id="Group_872" data-name="Group 872" transform="translate(4.614)">
        <g id="Group_871" data-name="Group 871">
          <path id="Path_9512" data-name="Path 9512" d="M78.691,0A3.741,3.741,0,0,0,75,3.753a3.691,3.691,0,0,0,7.383,0A3.742,3.742,0,0,0,78.691,0Zm0,5.6a1.848,1.848,0,0,1-1.846-1.846,1.847,1.847,0,1,1,3.691,0A1.848,1.848,0,0,1,78.691,5.6Z" transform="translate(-75)" fill="#2b6ed2"/>
        </g>
      </g>
      <g id="Group_874" data-name="Group 874">
        <g id="Group_873" data-name="Group 873">
          <path id="Path_9513" data-name="Path 9513" d="M28.731,0H15.688A2.772,2.772,0,0,0,12.92,2.769v6.3l-.811-.811a2.75,2.75,0,0,0-1.957-.811H4.614A4.619,4.619,0,0,0,0,12.059V17.6a2.769,2.769,0,0,0,3.691,2.61v8.525a2.767,2.767,0,0,0,4.614,2.062,2.767,2.767,0,0,0,4.614-2.062V16.516a2.779,2.779,0,0,0,2.161-.135l3.107-1.554H28.731A2.772,2.772,0,0,0,31.5,12.059V2.769A2.772,2.772,0,0,0,28.731,0ZM17.947,12.884l-3.69,1.845a.923.923,0,0,1-1.066-.173l-.541-.541a.923.923,0,0,0-1.575.65V28.731a.923.923,0,0,1-1.846,0v-9.29a.923.923,0,0,0-1.846,0v9.29a.923.923,0,0,1-1.846,0V12.059a.923.923,0,0,0-1.846,0V17.6a.923.923,0,0,1-1.846,0c0-.7,0-4.968,0-5.537A2.772,2.772,0,0,1,4.614,9.29h5.537a.916.916,0,0,1,.652.27l2.751,2.751a.923.923,0,0,0,1.065.173l2.5-1.251a.923.923,0,0,1,.825,1.651Zm11.707-.826a.924.924,0,0,1-.923.923H20.144c.006-.016.012-.031.017-.047a2.758,2.758,0,0,0,.122-1.218L25.33,9.193A.923.923,0,1,0,24.5,7.542l-5.046,2.523A2.766,2.766,0,0,0,16.3,9.582l-1.53.765V2.769a.924.924,0,0,1,.923-.923H28.731a.924.924,0,0,1,.923.923Z" fill="#2b6ed2"/>
        </g>
      </g>
    </g>
  </g>
</svg>
